<?xml version="1.0" encoding="UTF-8" standalone="no"?>
<!-- Generator: Adobe Illustrator 19.0.0, SVG Export Plug-In . SVG Version: 6.00 Build 0)  -->

<svg
   version="1.1"
   id="Layer_1"
   x="0px"
   y="0px"
   viewBox="0 0 218.207 218.207"
   style="enable-background:new 0 0 218.207 218.207;"
   xml:space="preserve"
   sodipodi:docname="manageuser copy.svg"
   inkscape:version="1.1.1 (c3084ef, 2021-09-22)"
   xmlns:inkscape="http://www.inkscape.org/namespaces/inkscape"
   xmlns:sodipodi="http://sodipodi.sourceforge.net/DTD/sodipodi-0.dtd"
   xmlns="http://www.w3.org/2000/svg"
   xmlns:svg="http://www.w3.org/2000/svg"><defs
   id="defs1183" /><sodipodi:namedview
   id="namedview1181"
   pagecolor="#ffffff"
   bordercolor="#666666"
   borderopacity="1.0"
   inkscape:pageshadow="2"
   inkscape:pageopacity="0.0"
   inkscape:pagecheckerboard="0"
   showgrid="false"
   inkscape:zoom="2.4967315"
   inkscape:cx="106.33903"
   inkscape:cy="76.099492"
   inkscape:window-width="1728"
   inkscape:window-height="1000"
   inkscape:window-x="0"
   inkscape:window-y="38"
   inkscape:window-maximized="1"
   inkscape:current-layer="g1144"
   inkscape:snap-bbox="true"
   inkscape:snap-bbox-midpoints="true"
   inkscape:lockguides="false"
   showguides="true"
   inkscape:guide-bbox="true"><sodipodi:guide
     position="57.509723,66.639435"
     orientation="1,0"
     id="guide3235" /><sodipodi:guide
     position="109.1035,109.1035"
     orientation="0,-1"
     id="guide3237" /></sodipodi:namedview>
<g
   id="g1148"
   style="fill:#cccccc">
	<g
   id="g1146"
   style="fill:#cccccc">
		<g
   id="g1144"
   style="fill:#cccccc">
			
			
			
			
			
			
			
			
			
			
		<ellipse
   style="fill:#b3b3b3;fill-opacity:0;stroke:#cccccc;stroke-width:8.85967;stroke-linecap:round;stroke-miterlimit:4;stroke-dasharray:none"
   id="path2642"
   cx="110.57789"
   cy="63.924187"
   rx="56.335464"
   ry="57.541206" /><path
   style="fill:#b3b3b3;fill-opacity:0;stroke:#cccccc;stroke-width:7.6;stroke-linecap:round;stroke-miterlimit:4;stroke-dasharray:none"
   id="path2710"
   transform="matrix(-0.99929021,-0.03767074,-0.19397453,0.98100657,0,0)"
   sodipodi:type="arc"
   sodipodi:cx="-132.51477"
   sodipodi:cy="103.01727"
   sodipodi:rx="81.993256"
   sodipodi:ry="35.932964"
   sodipodi:start="1.0241259"
   sodipodi:end="1.6370183"
   sodipodi:arc-type="arc"
   d="m -89.890921,133.71337 a 81.993256,35.932964 0 0 1 -48.049639,5.15811"
   sodipodi:open="true" /><path
   style="fill:#00ff00;fill-opacity:0;stroke:#cccccc;stroke-width:7.6;stroke-linecap:round;stroke-miterlimit:4;stroke-dasharray:none;stroke-opacity:1"
   id="path2922"
   sodipodi:type="arc"
   sodipodi:cx="174.70815"
   sodipodi:cy="-121.82522"
   sodipodi:rx="66.310631"
   sodipodi:ry="62.903439"
   sodipodi:start="1.1523801"
   sodipodi:end="2.7593371"
   sodipodi:open="true"
   sodipodi:arc-type="arc"
   d="m 201.65107,-64.348233 a 66.310631,62.903439 0 0 1 -51.85032,0.820352 66.310631,62.903439 0 0 1 -36.61731,-34.833463"
   transform="matrix(-0.27432763,0.96163629,-0.96521137,-0.26147087,0,0)" /><path
   style="fill:#b3b3b3;fill-opacity:0;stroke:#cccccc;stroke-width:7.6;stroke-linecap:round;stroke-miterlimit:4;stroke-dasharray:none"
   id="path2710-9"
   transform="matrix(0.99924653,-0.03881199,0.18846842,0.98207925,0,0)"
   sodipodi:type="arc"
   sodipodi:cx="88.472794"
   sodipodi:cy="111.48424"
   sodipodi:rx="79.582283"
   sodipodi:ry="35.893715"
   sodipodi:start="1.0241259"
   sodipodi:end="1.6370183"
   sodipodi:arc-type="arc"
   sodipodi:open="true"
   d="m 129.84331,142.14681 a 79.582283,35.893715 0 0 1 -46.636761,5.15247" /><path
   style="fill:#00ff00;fill-opacity:0;stroke:#cccccc;stroke-width:7.6;stroke-linecap:round;stroke-miterlimit:4;stroke-dasharray:none;stroke-opacity:1"
   id="path2922-7"
   sodipodi:type="arc"
   sodipodi:cx="233.07956"
   sodipodi:cy="92.13456"
   sodipodi:rx="66.16568"
   sodipodi:ry="61.179543"
   sodipodi:start="1.1523801"
   sodipodi:end="2.7593371"
   sodipodi:open="true"
   sodipodi:arc-type="arc"
   transform="matrix(0.26683276,0.96374285,0.96318527,-0.26883849,0,0)"
   d="m 259.96359,148.03636 a 66.16568,61.179543 0 0 1 -51.73697,0.79787 66.16568,61.179543 0 0 1 -36.53728,-33.87883" /><path
   style="fill:#cccccc;stroke:#cccccc;stroke-width:8.16023;stroke-linecap:round;stroke-linejoin:miter;stroke-miterlimit:4;stroke-dasharray:none;stroke-opacity:1"
   d="m 6.7911826,210.74019 205.1620474,-1e-5"
   id="path4290" /></g>
	</g>
</g>
<g
   id="g1150">
</g>
<g
   id="g1152">
</g>
<g
   id="g1154">
</g>
<g
   id="g1156">
</g>
<g
   id="g1158">
</g>
<g
   id="g1160">
</g>
<g
   id="g1162">
</g>
<g
   id="g1164">
</g>
<g
   id="g1166">
</g>
<g
   id="g1168">
</g>
<g
   id="g1170">
</g>
<g
   id="g1172">
</g>
<g
   id="g1174">
</g>
<g
   id="g1176">
</g>
<g
   id="g1178">
</g>
</svg>
